rtl/Core_Simulation.vcd
$date
	Tue Feb 21 03:56:24 2023
$end
$version
	Icarus Verilog
$end
$timescale
	1ns
$end
$scope module Core_tb $end
$var reg 1 ! clk $end
$var reg 7 " cycle_count [6:0] $end
$var reg 1 # mem_enable $end
$var reg 1 $ reset $end
$scope module core_proc $end
$var wire 1 ! clock $end
$var wire 1 # mem_en $end
$var wire 1 $ reset $end
$var wire 1 % writeback_data_valid $end
$var wire 32 & writeback_data [31:0] $end
$var wire 1 ' valid_mem_data_addr $end
$var wire 1 ( stall $end
$var wire 32 ) pc_mux_select [31:0] $end
$var wire 32 * pc_branch_offset [31:0] $end
$var wire 1 + mem_gnt_req $end
$var wire 1 , mem_data_req_valid $end
$var wire 5 - lsu_write_addr_reg_op [4:0] $end
$var wire 3 . lsu_wb_mux_pt [2:0] $end
$var wire 32 / lsu_uimmd_pt [31:0] $end
$var wire 32 0 lsu_instr_pc_addr_pt [31:0] $end
$var wire 1 1 lsu_alu_result_valid_pt $end
$var wire 32 2 lsu_alu_result_pt [31:0] $end
$var wire 32 3 load_mem_data [31:0] $end
$var wire 1 4 instr_mem_valid $end
$var wire 32 5 instr_mem_data [31:0] $end
$var wire 32 6 if_instr_pc_addr [31:0] $end
$var wire 5 7 id_write_addr_reg_op [4:0] $end
$var wire 3 8 id_wb_mux_op [2:0] $end
$var wire 32 9 id_uimmd_pt [31:0] $end
$var wire 4 : id_lsu_operator_pt [3:0] $end
$var wire 1 ; id_lsu_en_pt $end
$var wire 32 < id_instr_pc_addr_pt [31:0] $end
$var wire 5 = fwd_src2_reg_addr [4:0] $end
$var wire 5 > fwd_src1_reg_addr [4:0] $end
$var wire 7 ? fwd_instr_opcode [6:0] $end
$var wire 1 @ flush $end
$var wire 5 A ex_write_addr_reg_op [4:0] $end
$var wire 3 B ex_wb_mux_pt [2:0] $end
$var wire 32 C ex_uimmd_pt [31:0] $end
$var wire 4 D ex_lsu_operator [3:0] $end
$var wire 1 E ex_lsu_en $end
$var wire 32 F ex_instr_pc_addr_pt [31:0] $end
$var wire 1 G ex_alu_result_valid_pt $end
$var wire 32 H ex_alu_result_pt [31:0] $end
$var wire 32 I ex_DRAM_wdata [31:0] $end
$var wire 7 J alu_operator [6:0] $end
$var wire 32 K alu_operand_b [31:0] $end
$var wire 32 L alu_operand_a [31:0] $end
$var wire 1 M alu_next_pc_addr_valid $end
$var wire 32 N alu_next_pc_addr [31:0] $end
$var wire 1 O alu_en $end
$var wire 3 P FB [2:0] $end
$var wire 3 Q FA [2:0] $end
$var wire 32 R DRAM_wdata [31:0] $end
$var wire 32 S DRAM_load_mem_data [31:0] $end
$var reg 32 T next_instr_addr [31:0] $end
$scope module ForwardController_Module $end
$var wire 1 $ reset $end
$var wire 7 U id_instr_opcode_ip [6:0] $end
$var wire 3 V MEM_WB_wb_mux_ip [2:0] $end
$var wire 5 W MEM_WB_dest_ip [4:0] $end
$var wire 1 X MEM_WB_RegWrite_en $end
$var wire 5 Y ID_dest_rs2_ip [4:0] $end
$var wire 5 Z ID_dest_rs1_ip [4:0] $end
$var wire 3 [ EX_MEM_wb_mux_ip [2:0] $end
$var wire 5 \ EX_MEM_dest_ip [4:0] $end
$var wire 1 ] EX_MEM_RegWrite_en $end
$var reg 3 ^ fa_mux_op [2:0] $end
$var reg 3 _ fb_mux_op [2:0] $end
$upscope $end
$scope module InstructionDecode_Module $end
$var wire 1 ! clock $end
$var wire 32 ` pc4 [31:0] $end
$var wire 1 $ reset $end
$var wire 5 a write_reg_addr_ip [4:0] $end
$var wire 1 % wb_data_valid_ip $end
$var wire 32 b wb_data_ip [31:0] $end
$var wire 32 c valid_instr_to_decode [31:0] $end
$var wire 1 ( stall_op $end
$var wire 5 d regfile_write_addr_a_id [4:0] $end
$var wire 5 e regfile_read_addr_b_id [4:0] $end
$var wire 5 f regfile_read_addr_a_id [4:0] $end
$var wire 32 g regfile_b_out [31:0] $end
$var wire 32 h regfile_a_out [31:0] $end
$var wire 32 i pc [31:0] $end
$var wire 5 j mem_dest_reg_ip [4:0] $end
$var wire 1 4 instr_data_valid_ip $end
$var wire 32 k instr_data_ip [31:0] $end
$var wire 1 @ flush_en_ip $end
$var wire 1 l alu_en $end
$var reg 7 m EX_instruction_opcode [6:0] $end
$var reg 5 n ID_src1_reg_addr [4:0] $end
$var reg 5 o ID_src2_reg_addr [4:0] $end
$var reg 32 p J_IMM [31:0] $end
$var reg 1 O alu_en_op $end
$var reg 32 q alu_operand_a_ex [31:0] $end
$var reg 32 r alu_operand_a_ex_op [31:0] $end
$var reg 32 s alu_operand_b_ex [31:0] $end
$var reg 32 t alu_operand_b_ex_op [31:0] $end
$var reg 7 u alu_operator [6:0] $end
$var reg 7 v alu_operator_op [6:0] $end
$var reg 1 w comparator_en $end
$var reg 3 x comparator_func [2:0] $end
$var reg 1 y en_lsu $end
$var reg 1 ; en_lsu_op $end
$var reg 32 z id_pc_addr_pt_op [31:0] $end
$var reg 32 { id_uimmd_pt_op [31:0] $end
$var reg 4 | lsu_operator [3:0] $end
$var reg 4 } lsu_operator_op [3:0] $end
$var reg 32 ~ mem_wdata [31:0] $end
$var reg 32 !" mem_wdata_op [31:0] $end
$var reg 3 "" operand_b_select [2:0] $end
$var reg 32 #" pc_branch_offset [31:0] $end
$var reg 32 $" pc_branch_offset_op [31:0] $end
$var reg 3 %" wb_mux_op [2:0] $end
$var reg 5 &" write_reg_addr_op [4:0] $end
$var reg 3 '" writeback_mux [2:0] $end
$var integer 32 (" operand_a_select [31:0] $end
$var integer 32 )" pc_mux_inter [31:0] $end
$var integer 32 *" pc_mux_op [31:0] $end
$scope module StallController_Module $end
$var wire 7 +" EX_instr_opcode_ip [6:0] $end
$var wire 5 ," EX_reg_dest_ip [4:0] $end
$var wire 7 -" ID_instr_opcode_ip [6:0] $end
$var wire 5 ." ID_src1_addr_ip [4:0] $end
$var wire 5 /" ID_src2_addr_ip [4:0] $end
$var wire 1 $ reset $end
$var wire 1 % WB_write_reg_en_ip $end
$var wire 5 0" WB_reg_dest_ip [4:0] $end
$var wire 1 4 LSU_write_reg_en_ip $end
$var wire 5 1" LSU_reg_dest_ip [4:0] $end
$var reg 1 2" EX_write_reg_en $end
$var reg 1 ( stall_op $end
$upscope $end
$scope module register_file $end
$var wire 1 ! clock $end
$var wire 5 3" raddr_a_ip [4:0] $end
$var wire 32 4" raddr_a_op [31:0] $end
$var wire 5 5" raddr_b_ip [4:0] $end
$var wire 32 6" raddr_b_op [31:0] $end
$var wire 1 $ reset $end
$var wire 5 7" waddr_a [4:0] $end
$var wire 32 8" write_enable_a_dec [31:0] $end
$var wire 1 % we_a_ip $end
$var wire 32 9" wdata_a_ip [31:0] $end
$var wire 5 :" waddr_a_ip [4:0] $end
$scope begin RF[1] $end
$scope module RF $end
$var wire 1 ! clock $end
$var wire 1 ;" enable $end
$var wire 1 $ reset $end
$var wire 32 <" data_ip [31:0] $end
$var reg 32 =" data_op [31:0] $end
$upscope $end
$upscope $end
$scope begin RF[2] $end
$scope module RF $end
$var wire 1 ! clock $end
$var wire 1 >" enable $end
$var wire 1 $ reset $end
$var wire 32 ?" data_ip [31:0] $end
$var reg 32 @" data_op [31:0] $end
$upscope $end
$upscope $end
$scope begin RF[3] $end
$scope module RF $end
$var wire 1 ! clock $end
$var wire 1 A" enable $end
$var wire 1 $ reset $end
$var wire 32 B" data_ip [31:0] $end
$var reg 32 C" data_op [31:0] $end
$upscope $end
$upscope $end
$scope begin RF[4] $end
$scope module RF $end
$var wire 1 ! clock $end
$var wire 1 D" enable $end
$var wire 1 $ reset $end
$var wire 32 E" data_ip [31:0] $end
$var reg 32 F" data_op [31:0] $end
$upscope $end
$upscope $end
$scope begin RF[5] $end
$scope module RF $end
$var wire 1 ! clock $end
$var wire 1 G" enable $end
$var wire 1 $ reset $end
$var wire 32 H" data_ip [31:0] $end
$var reg 32 I" data_op [31:0] $end
$upscope $end
$upscope $end
$scope begin RF[6] $end
$scope module RF $end
$var wire 1 ! clock $end
$var wire 1 J" enable $end
$var wire 1 $ reset $end
$var wire 32 K" data_ip [31:0] $end
$var reg 32 L" data_op [31:0] $end
$upscope $end
$upscope $end
$scope begin RF[7] $end
$scope module RF $end
$var wire 1 ! clock $end
$var wire 1 M" enable $end
$var wire 1 $ reset $end
$var wire 32 N" data_ip [31:0] $end
$var reg 32 O" data_op [31:0] $end
$upscope $end
$upscope $end
$scope begin RF[8] $end
$scope module RF $end
$var wire 1 ! clock $end
$var wire 1 P" enable $end
$var wire 1 $ reset $end
$var wire 32 Q" data_ip [31:0] $end
$var reg 32 R" data_op [31:0] $end
$upscope $end
$upscope $end
$scope begin RF[9] $end
$scope module RF $end
$var wire 1 ! clock $end
$var wire 1 S" enable $end
$var wire 1 $ reset $end
$var wire 32 T" data_ip [31:0] $end
$var reg 32 U" data_op [31:0] $end
$upscope $end
$upscope $end
$scope begin RF[10] $end
$scope module RF $end
$var wire 1 ! clock $end
$var wire 1 V" enable $end
$var wire 1 $ reset $end
$var wire 32 W" data_ip [31:0] $end
$var reg 32 X" data_op [31:0] $end
$upscope $end
$upscope $end
$scope begin RF[11] $end
$scope module RF $end
$var wire 1 ! clock $end
$var wire 1 Y" enable $end
$var wire 1 $ reset $end
$var wire 32 Z" data_ip [31:0] $end
$var reg 32 [" data_op [31:0] $end
$upscope $end
$upscope $end
$scope begin RF[12] $end
$scope module RF $end
$var wire 1 ! clock $end
$var wire 1 \" enable $end
$var wire 1 $ reset $end
$var wire 32 ]" data_ip [31:0] $end
$var reg 32 ^" data_op [31:0] $end
$upscope $end
$upscope $end
$scope begin RF[13] $end
$scope module RF $end
$var wire 1 ! clock $end
$var wire 1 _" enable $end
$var wire 1 $ reset $end
$var wire 32 `" data_ip [31:0] $end
$var reg 32 a" data_op [31:0] $end
$upscope $end
$upscope $end
$scope begin RF[14] $end
$scope module RF $end
$var wire 1 ! clock $end
$var wire 1 b" enable $end
$var wire 1 $ reset $end
$var wire 32 c" data_ip [31:0] $end
$var reg 32 d" data_op [31:0] $end
$upscope $end
$upscope $end
$scope begin RF[15] $end
$scope module RF $end
$var wire 1 ! clock $end
$var wire 1 e" enable $end
$var wire 1 $ reset $end
$var wire 32 f" data_ip [31:0] $end
$var reg 32 g" data_op [31:0] $end
$upscope $end
$upscope $end
$scope begin RF[16] $end
$scope module RF $end
$var wire 1 ! clock $end
$var wire 1 h" enable $end
$var wire 1 $ reset $end
$var wire 32 i" data_ip [31:0] $end
$var reg 32 j" data_op [31:0] $end
$upscope $end
$upscope $end
$scope begin RF[17] $end
$scope module RF $end
$var wire 1 ! clock $end
$var wire 1 k" enable $end
$var wire 1 $ reset $end
$var wire 32 l" data_ip [31:0] $end
$var reg 32 m" data_op [31:0] $end
$upscope $end
$upscope $end
$scope begin RF[18] $end
$scope module RF $end
$var wire 1 ! clock $end
$var wire 1 n" enable $end
$var wire 1 $ reset $end
$var wire 32 o" data_ip [31:0] $end
$var reg 32 p" data_op [31:0] $end
$upscope $end
$upscope $end
$scope begin RF[19] $end
$scope module RF $end
$var wire 1 ! clock $end
$var wire 1 q" enable $end
$var wire 1 $ reset $end
$var wire 32 r" data_ip [31:0] $end
$var reg 32 s" data_op [31:0] $end
$upscope $end
$upscope $end
$scope begin RF[20] $end
$scope module RF $end
$var wire 1 ! clock $end
$var wire 1 t" enable $end
$var wire 1 $ reset $end
$var wire 32 u" data_ip [31:0] $end
$var reg 32 v" data_op [31:0] $end
$upscope $end
$upscope $end
$scope begin RF[21] $end
$scope module RF $end
$var wire 1 ! clock $end
$var wire 1 w" enable $end
$var wire 1 $ reset $end
$var wire 32 x" data_ip [31:0] $end
$var reg 32 y" data_op [31:0] $end
$upscope $end
$upscope $end
$scope begin RF[22] $end
$scope module RF $end
$var wire 1 ! clock $end
$var wire 1 z" enable $end
$var wire 1 $ reset $end
$var wire 32 {" data_ip [31:0] $end
$var reg 32 |" data_op [31:0] $end
$upscope $end
$upscope $end
$scope begin RF[23] $end
$scope module RF $end
$var wire 1 ! clock $end
$var wire 1 }" enable $end
$var wire 1 $ reset $end
$var wire 32 ~" data_ip [31:0] $end
$var reg 32 !# data_op [31:0] $end
$upscope $end
$upscope $end
$scope begin RF[24] $end
$scope module RF $end
$var wire 1 ! clock $end
$var wire 1 "# enable $end
$var wire 1 $ reset $end
$var wire 32 ## data_ip [31:0] $end
$var reg 32 $# data_op [31:0] $end
$upscope $end
$upscope $end
$scope begin RF[25] $end
$scope module RF $end
$var wire 1 ! clock $end
$var wire 1 %# enable $end
$var wire 1 $ reset $end
$var wire 32 &# data_ip [31:0] $end
$var reg 32 '# data_op [31:0] $end
$upscope $end
$upscope $end
$scope begin RF[26] $end
$scope module RF $end
$var wire 1 ! clock $end
$var wire 1 (# enable $end
$var wire 1 $ reset $end
$var wire 32 )# data_ip [31:0] $end
$var reg 32 *# data_op [31:0] $end
$upscope $end
$upscope $end
$scope begin RF[27] $end
$scope module RF $end
$var wire 1 ! clock $end
$var wire 1 +# enable $end
$var wire 1 $ reset $end
$var wire 32 ,# data_ip [31:0] $end
$var reg 32 -# data_op [31:0] $end
$upscope $end
$upscope $end
$scope begin RF[28] $end
$scope module RF $end
$var wire 1 ! clock $end
$var wire 1 .# enable $end
$var wire 1 $ reset $end
$var wire 32 /# data_ip [31:0] $end
$var reg 32 0# data_op [31:0] $end
$upscope $end
$upscope $end
$scope begin RF[29] $end
$scope module RF $end
$var wire 1 ! clock $end
$var wire 1 1# enable $end
$var wire 1 $ reset $end
$var wire 32 2# data_ip [31:0] $end
$var reg 32 3# data_op [31:0] $end
$upscope $end
$upscope $end
$scope begin RF[30] $end
$scope module RF $end
$var wire 1 ! clock $end
$var wire 1 4# enable $end
$var wire 1 $ reset $end
$var wire 32 5# data_ip [31:0] $end
$var reg 32 6# data_op [31:0] $end
$upscope $end
$upscope $end
$scope begin RF[31] $end
$scope module RF $end
$var wire 1 ! clock $end
$var wire 1 7# enable $end
$var wire 1 $ reset $end
$var wire 32 8# data_ip [31:0] $end
$var reg 32 9# data_op [31:0] $end
$upscope $end
$upscope $end
$scope begin gen_we_encoder[0] $end
$upscope $end
$scope begin gen_we_encoder[1] $end
$upscope $end
$scope begin gen_we_encoder[2] $end
$upscope $end
$scope begin gen_we_encoder[3] $end
$upscope $end
$scope begin gen_we_encoder[4] $end
$upscope $end
$scope begin gen_we_encoder[5] $end
$upscope $end
$scope begin gen_we_encoder[6] $end
$upscope $end
$scope begin gen_we_encoder[7] $end
$upscope $end
$scope begin gen_we_encoder[8] $end
$upscope $end
$scope begin gen_we_encoder[9] $end
$upscope $end
$scope begin gen_we_encoder[10] $end
$upscope $end
$scope begin gen_we_encoder[11] $end
$upscope $end
$scope begin gen_we_encoder[12] $end
$upscope $end
$scope begin gen_we_encoder[13] $end
$upscope $end
$scope begin gen_we_encoder[14] $end
$upscope $end
$scope begin gen_we_encoder[15] $end
$upscope $end
$scope begin gen_we_encoder[16] $end
$upscope $end
$scope begin gen_we_encoder[17] $end
$upscope $end
$scope begin gen_we_encoder[18] $end
$upscope $end
$scope begin gen_we_encoder[19] $end
$upscope $end
$scope begin gen_we_encoder[20] $end
$upscope $end
$scope begin gen_we_encoder[21] $end
$upscope $end
$scope begin gen_we_encoder[22] $end
$upscope $end
$scope begin gen_we_encoder[23] $end
$upscope $end
$scope begin gen_we_encoder[24] $end
$upscope $end
$scope begin gen_we_encoder[25] $end
$upscope $end
$scope begin gen_we_encoder[26] $end
$upscope $end
$scope begin gen_we_encoder[27] $end
$upscope $end
$scope begin gen_we_encoder[28] $end
$upscope $end
$scope begin gen_we_encoder[29] $end
$upscope $end
$scope begin gen_we_encoder[30] $end
$upscope $end
$scope begin gen_we_encoder[31] $end
$upscope $end
$scope module RF0 $end
$var wire 1 ! clock $end
$var wire 1 :# enable $end
$var wire 1 $ reset $end
$var wire 32 ;# data_ip [31:0] $end
$var reg 32 <# data_op [31:0] $end
$upscope $end
$upscope $end
$upscope $end
$scope module InstructionExecute_Module $end
$var wire 1 O alu_enable_ip $end
$var wire 32 =# alu_operand_a_ip [31:0] $end
$var wire 32 ># alu_operand_b_ip [31:0] $end
$var wire 7 ?# alu_operator_ip [6:0] $end
$var wire 1 ! clock $end
$var wire 4 @# ex_lsu_operator_pt_ip [3:0] $end
$var wire 32 A# ex_pc_addr_pt_ip [31:0] $end
$var wire 32 B# ex_uimmd_pt_ip [31:0] $end
$var wire 3 C# ex_wb_mux_ip [2:0] $end
$var wire 5 D# ex_write_reg_addr_pt_ip [4:0] $end
$var wire 3 E# fa_mux_ip [2:0] $end
$var wire 3 F# fb_mux_ip [2:0] $end
$var wire 1 ; lsu_enable_pt_ip $end
$var wire 32 G# mem_wdata_pt_ip [31:0] $end
$var wire 32 H# pc_branch_offset_ip [31:0] $end
$var wire 32 I# pc_mux_ip [31:0] $end
$var wire 1 $ reset $end
$var wire 32 J# fw_wb_data [31:0] $end
$var wire 1 K# alu_valid $end
$var wire 32 L# alu_result [31:0] $end
$var reg 32 M# alu_operand_a [31:0] $end
$var reg 32 N# alu_operand_b [31:0] $end
$var reg 32 O# alu_result_op [31:0] $end
$var reg 1 G alu_valid_op $end
$var reg 4 P# ex_lsu_operator_pt_op [3:0] $end
$var reg 32 Q# ex_pc_addr_pt_op [31:0] $end
$var reg 32 R# ex_uimmd_pt_op [31:0] $end
$var reg 3 S# ex_wb_mux_op [2:0] $end
$var reg 5 T# ex_write_reg_addr_pt_op [4:0] $end
$var reg 1 @ flush_en_op $end
$var reg 1 E lsu_enable_pt_op $end
$var reg 32 U# mem_wdata_pt_op [31:0] $end
$var reg 32 V# next_PC_addr_op [31:0] $end
$var reg 1 M next_PC_addr_valid_op $end
$scope module ArthimeticLogicUnit $end
$var wire 1 O alu_enable_ip $end
$var wire 32 W# alu_operand_a_ip [31:0] $end
$var wire 32 X# alu_operand_b_ip [31:0] $end
$var wire 7 Y# alu_operator_ip [6:0] $end
$var wire 1 $ reset $end
$var reg 32 Z# alu_result_op [31:0] $end
$var reg 1 K# alu_valid_op $end
$upscope $end
$upscope $end
$scope module InstructionFetch_Module $end
$var wire 32 [# alu_result_ip [31:0] $end
$var wire 1 M alu_result_valid_ip $end
$var wire 1 ! clock $end
$var wire 1 @ flush_ctrl_ip $end
$var wire 1 # mem_en $end
$var wire 1 \# mem_gnt_req $end
$var wire 32 ]# pc_mux_ip [31:0] $end
$var wire 1 $ reset $end
$var wire 1 ( stall_ip $end
$var wire 32 ^# pc_addr [31:0] $end
$var wire 1 _# mem_instr_req_valid $end
$var wire 1 `# instr_valid $end
$var wire 32 a# instr_mem_addr [31:0] $end
$var wire 1 + instr_gnt_ip $end
$var wire 32 b# instr_data [31:0] $end
$var reg 32 c# Next_PC [31:0] $end
$var reg 32 d# instr_data_op [31:0] $end
$var reg 32 e# instr_pc_addr_op [31:0] $end
$var reg 1 4 instr_valid_op $end
$scope module FetchModule $end
$var wire 1 f# Instr_or_Data_op $end
$var wire 32 g# Next_PC_ip [31:0] $end
$var wire 1 ! clock $end
$var wire 1 \# instr_gnt_ip $end
$var wire 32 h# pc_addr [31:0] $end
$var wire 1 $ reset $end
$var reg 32 i# PC [31:0] $end
$var reg 32 j# instr_addr_op [31:0] $end
$var reg 1 _# instr_req_op $end
$upscope $end
$scope module InstructionMemory $end
$var wire 1 ! clock $end
$var wire 32 k# instr_addr_ip [31:0] $end
$var wire 1 _# instr_req_ip $end
$var wire 1 # mem_en $end
$var reg 32 l# instr_data_op [31:0] $end
$var reg 1 `# instr_valid_op $end
$scope begin $ivl_for_loop0 $end
$var integer 32 m# i [31:0] $end
$upscope $end
$upscope $end
$upscope $end
$scope module LoadStoreUnit $end
$var wire 1 G alu_valid_ip $end
$var wire 1 ! clock $end
$var wire 1 ' data_addr_valid_op $end
$var wire 1 E lsu_en_ip $end
$var wire 4 n# lsu_operator_ip [3:0] $end
$var wire 32 o# lsu_pc_addr_pt_ip [31:0] $end
$var wire 32 p# lsu_uimmd_pt_ip [31:0] $end
$var wire 3 q# lsu_wb_mux_pt_ip [2:0] $end
$var wire 5 r# lsu_write_reg_addr_pt_ip [4:0] $end
$var wire 32 s# mem_addr_ip [31:0] $end
$var wire 1 $ reset $end
$var wire 1 t# valid_mem_operation $end
$var wire 32 u# wb_alu_result_pt_ip [31:0] $end
$var wire 1 G wb_alu_result_valid_pt_ip $end
$var wire 32 v# mem_data_ip [31:0] $end
$var wire 1 + data_gnt_i $end
$var reg 1 , data_req_op $end
$var reg 32 w# load_mem_data_op [31:0] $end
$var reg 32 x# lsu_pc_addr_pt_op [31:0] $end
$var reg 32 y# lsu_uimmd_pt_op [31:0] $end
$var reg 3 z# lsu_wb_mux_pt_op [2:0] $end
$var reg 5 {# lsu_write_reg_addr_pt_op [4:0] $end
$var reg 32 |# wb_alu_result_pt_op [31:0] $end
$var reg 1 1 wb_alu_result_valid_pt_op $end
$upscope $end
$scope module MainMemory $end
$var wire 1 ! clock $end
$var wire 32 }# data_addr_ip [31:0] $end
$var wire 1 ~# data_req $end
$var wire 1 ' data_req_ip $end
$var wire 4 !$ lsu_operator [3:0] $end
$var wire 1 # mem_en $end
$var wire 32 "$ wdata_ip [31:0] $end
$var wire 1 + mem_gnt_op $end
$var reg 32 #$ load_data_op [31:0] $end
$scope begin $ivl_for_loop1 $end
$var integer 32 $$ i [31:0] $end
$upscope $end
$upscope $end
$scope module WriteBack_Module $end
$var wire 32 %$ WB_alu_result_ip [31:0] $end
$var wire 1 1 WB_alu_result_valid_ip $end
$var wire 32 &$ WB_immediate_ip [31:0] $end
$var wire 32 '$ WB_mem_result_ip [31:0] $end
$var wire 1 , WB_mem_result_valid_ip $end
$var wire 32 ($ WB_pc_ip [31:0] $end
$var wire 3 )$ WB_wb_mux_ip [2:0] $end
$var wire 1 $ reset $end
$var reg 32 *$ WB_regfile_write_data [31:0] $end
$var reg 1 % WB_regfile_write_valid $end
$upscope $end
$upscope $end
$upscope $end
$enddefinitions $end
#0
$dumpvars
bz *$
bx )$
bx ($
bx '$
bx &$
bx %$
b10000000000 $$
bx #$
bx "$
bx !$
x~#
bx }#
bx |#
bx {#
bx z#
bx y#
bx x#
bx w#
bx v#
bx u#
xt#
bx s#
bx r#
bx q#
bx p#
bx o#
bx n#
b10000000000 m#
bx l#
b0 k#
b0 j#
bx i#
bx h#
b0 g#
0f#
bx e#
bx d#
b0 c#
bx b#
b0 a#
x`#
0_#
bx ^#
b0 ]#
z\#
b0 [#
b0 Z#
bx Y#
bx X#
bx W#
b0 V#
bx U#
bx T#
bx S#
bx R#
bx Q#
bx P#
bx O#
bx N#
bx M#
b0 L#
0K#
bz J#
b0 I#
bx H#
bx G#
b0 F#
b0 E#
bx D#
bx C#
bx B#
bx A#
bx @#
bx ?#
bx >#
bx =#
bx <#
bz ;#
0:#
bx 9#
bz 8#
07#
bx 6#
bz 5#
04#
bx 3#
bz 2#
01#
bx 0#
bz /#
0.#
bx -#
bz ,#
0+#
bx *#
bz )#
0(#
bx '#
bz &#
0%#
bx $#
bz ##
0"#
bx !#
bz ~"
0}"
bx |"
bz {"
0z"
bx y"
bz x"
0w"
bx v"
bz u"
0t"
bx s"
bz r"
0q"
bx p"
bz o"
0n"
bx m"
bz l"
0k"
bx j"
bz i"
0h"
bx g"
bz f"
0e"
bx d"
bz c"
0b"
bx a"
bz `"
0_"
bx ^"
bz ]"
0\"
bx ["
bz Z"
0Y"
bx X"
bz W"
0V"
bx U"
bz T"
0S"
bx R"
bz Q"
0P"
bx O"
bz N"
0M"
bx L"
bz K"
0J"
bx I"
bz H"
0G"
bx F"
bz E"
0D"
bx C"
bz B"
0A"
bx @"
bz ?"
0>"
bx ="
bz <"
0;"
bx :"
bz 9"
b0 8"
bx 7"
bx 6"
bx 5"
bx 4"
bx 3"
x2"
bx 1"
bx 0"
bx /"
bx ."
bx -"
bx ,"
bx +"
b0 *"
b0 )"
b0 ("
bx '"
bx &"
bx %"
bx $"
bx #"
bx ""
bx !"
bx ~
bx }
bx |
bx {
bx z
xy
bx x
xw
bx v
bx u
bx t
bx s
bx r
bx q
bx p
bx o
bx n
bx m
xl
bx k
bx j
bx i
bx h
bx g
bx f
bx e
bx d
bx c
bz b
bx a
bx `
b0 _
b0 ^
x]
bx \
bx [
bx Z
bx Y
xX
bx W
bx V
bx U
bx T
bx S
bx R
b0 Q
b0 P
xO
b0 N
0M
bx L
bx K
bx J
bx I
bx H
xG
bx F
xE
bx D
bx C
bx B
bx A
0@
bx ?
bx >
bx =
bx <
x;
bx :
bx 9
bx 8
bx 7
bx 6
bx 5
x4
bx 3
bx 2
x1
bx 0
bx /
bx .
bx -
x,
1+
bx *
b0 )
0(
x'
bz &
0%
1$
1#
b0 "
1!
$end
#1
0!
#2
bz q
0l
bz f
bz ."
bz 3"
bz e
bz /"
bz 5"
bz d
bz -"
bz s
bz #"
0w
b0 x
b1 |
0y
bz ~
b0 '"
b101 ""
b10 ("
b0 u
bz c
02"
0~#
0'
0t#
b0 N#
b0 X#
b0 M#
b0 W#
b0 ^#
b0 h#
b0 i#
bz b#
bz l#
0`#
b0 6
b0 i
b0 e#
b0 5
b0 k
b0 d#
04
b0 ="
b0 @"
b0 C"
b0 F"
b0 I"
b0 L"
b0 O"
b0 R"
b0 U"
b0 X"
b0 ["
b0 ^"
b0 a"
b0 d"
b0 g"
b0 j"
b0 m"
b0 p"
b0 s"
b0 v"
b0 y"
b0 |"
b0 !#
b0 $#
b0 '#
b0 *#
b0 -#
b0 0#
b0 3#
b0 6#
b0 9#
b0 <#
b0 9
b0 {
b0 B#
b0 <
b0 z
b0 A#
b0 =
b0 Y
b0 o
b0 >
b0 Z
b0 n
b0 ?
b0 U
b0 m
b0 +"
b0 7
b0 &"
b0 ,"
b0 D#
b0 8
b0 %"
b0 C#
b100 )
b100 *"
b100 I#
b100 ]#
b0 *
b0 $"
b0 H#
b0 R
b0 !"
b0 G#
b0 :
b0 }
b0 @#
0;
b0 K
b0 t
b0 >#
b0 L
b0 r
b0 =#
b0 J
b0 v
b0 ?#
b0 Y#
0O
0G
b0 H
b0 O#
b0 s#
b0 u#
b0 }#
0,
1!
#3
0!
#4
0]
01
b0 2
b0 |#
b0 %$
b0 C
b0 R#
b0 p#
b0 F
b0 Q#
b0 o#
b0 A
b0 \
b0 j
b0 1"
b0 T#
b0 r#
b0 B
b0 [
b0 S#
b0 q#
b0 I
b0 U#
b0 "$
b0 D
b0 P#
b0 n#
b0 !$
0E
1!
#5
0!
#6
0X
b0 /
b0 y#
b0 &$
b0 0
b0 x#
b0 ($
b0 7"
b0 -
b0 W
b0 a
b0 0"
b0 :"
b0 {#
b0 .
b0 V
b0 z#
b0 )$
1!
#7
0!
b100 a#
b100 j#
b100 k#
b100 c#
b100 g#
1_#
0$
#8
b1000 a#
b1000 j#
b1000 k#
x2"
bz N#
bz X#
bz M#
bz W#
b1000 c#
b1000 g#
b1 "
bz =
bz Y
bz o
bz >
bz Z
bz n
bz ?
bz U
bz m
bz +"
bz 7
bz &"
bz ,"
bz D#
b0 )
b0 *"
b0 I#
b0 ]#
bz *
bz $"
bz H#
bz R
bz !"
bz G#
b1 :
b1 }
b1 @#
bz K
bz t
bz >#
bz L
bz r
bz =#
bz 5
bz k
bz d#
b10011110000011 b#
b10011110000011 l#
1`#
b100 ^#
b100 h#
b100 i#
1!
#9
0!
#10
1l
b0 q
b1100 a#
b1100 j#
b1100 k#
b0 h
b0 4"
b0 f
b0 ."
b0 3"
b0 g
b0 6"
b0 e
b0 /"
b0 5"
b1111 d
b11 -"
b0 s
b11000 u
b10 '"
b1 ""
b0 ("
1y
b1100 c#
b1100 g#
b10011110000011 c
b1000 ^#
b1000 h#
b1000 i#
b101111000011110010011 b#
b101111000011110010011 l#
b10011110000011 5
b10011110000011 k
b10011110000011 d#
14
b100 6
b100 i
b100 e#
bz A
bz \
bz j
bz 1"
bz T#
bz r#
bz I
bz U#
bz "$
b1 D
b1 P#
b1 n#
b1 !$
b10 "
1!
#11
0!
#12
1(
b1111 f
b1111 ."
b1111 3"
b1 e
b1 /"
b1 5"
b10011 -"
b1 s
0y
b1 '"
b1 ""
b0 ("
b11000 u
b1100 a#
b1100 j#
b1100 k#
b0 N#
b0 X#
b0 M#
b0 W#
12"
1K#
b0 L#
b0 Z#
b101111000011110010011 c
b1100 c#
b1100 g#
b11 "
bz 7"
bz -
bz W
bz a
bz 0"
bz :"
bz {#
b100 <
b100 z
b100 A#
b0 =
b0 Y
b0 o
b0 >
b0 Z
b0 n
b11 ?
b11 U
b11 m
b11 +"
b1111 7
b1111 &"
b1111 ,"
b1111 D#
b10 8
b10 %"
b10 C#
1;
b0 K
b0 t
b0 >#
b0 L
b0 r
b0 =#
b11000 J
b11000 v
b11000 ?#
b11000 Y#
1O
b101111000011110010011 5
b101111000011110010011 k
b101111000011110010011 d#
b1000 6
b1000 i
b1000 e#
b100000000000010101101111 b#
b100000000000010101101111 l#
b1100 ^#
b1100 h#
b1100 i#
1!
#13
0!
#14
b10000 a#
b10000 j#
b10000 k#
b0 S
b0 v#
b0 #$
b10000 c#
b10000 g#
0K#
02"
0(
1]
1~#
1'
1t#
b0 <
b0 z
b0 A#
b0 ?
b0 U
b0 m
b0 +"
b0 7
b0 &"
b0 ,"
b0 D#
b0 8
b0 %"
b0 C#
b100 )
b100 *"
b100 I#
b100 ]#
b0 *
b0 $"
b0 H#
b0 R
b0 !"
b0 G#
b0 :
b0 }
b0 @#
0;
b0 J
b0 v
b0 ?#
b0 Y#
0O
b100 F
b100 Q#
b100 o#
b1111 A
b1111 \
b1111 j
b1111 1"
b1111 T#
b1111 r#
b10 B
b10 [
b10 S#
b10 q#
1G
1E
b100 "
1!
#15
0!
